{
  "children": [
    {
      "text": "HousingDB",
      "url": "https://housingdb.org"
    },
    {
      "text": "Pittsburgh Housing",
      "url": "https://pittsburghhousing.org"
    },
    {
      "text": "Tools for Nonprofits",
      "url": "https://github.com/GazeDev/tools-for-nonprofits"
    }
  ]
}